"Chemical Faculty Room","Chemical Engineering faculty room","CHE FR","CHE faculty room"
"CSE HOD","CSE HOD","Computer Science Head of Department"
"Principal Office","Principal Office","Principal room","Principal's Office","Principal's Room"
"Admin Office","Administrator office","Admin Office","admin  room","admin's room"
"TPO Office","TPO Office","TPO's room"
"CSE Faculty Room","CSE Faculty Room","computer sci faculty room","Computer science engineering faculty room"
"CSE Department","CSE Department","CSE dept","cse Dept","CSE classes","computer science department"
"ECE HOD","ECE HOD","Electronics HOD","Electronics and communication HOD","Electronics Engineering HOD"
"ECE Faculty Room","ECE Faculty Room","ECE Faculty room","Electronics Faculty room"
"ECE Department","ECE Department","Electronics and communication department","ECE dept","electronics dept"
"IT HOD","IT HOD","Information Technology HOD","IT head of department"
"IT Faculty Room","IT Faculty Room","Faculty Room IT","IT faculty room","Information Technology Faculty room","Faculty Room IT","Faculty room Information Technology"
"IT Department","IT Department","it department","IT dept","Information Technology department"
"Chemical HOD","Chemical HOD","chemical engineering head of department","Chem head of dept"
"Chemical Department","Chemical Department","chemical department","chemical engineering dept"
"Physics HOD","Physics HOD","Physics head of department","phy head of dept"
"Physics Faculty Room","Physics Faculty Room","physics faculty room","phy faculty room"
"Physics Department","Physics Department","physics department","phy dept"
"Math HOD","Math HOD","Maths Head of Department","Maths hod"
"Math Faculty Room","Math Faculty Room","maths faculty room","Maths faculty place","Math faculty room"
"Math Department","Math Department","Maths department","maths classes"
"HMTS HOD","HMTS HOD","HMTS head of department","hmts head of dept","humanities department"
"HMTS Faculty Room","HMTS Faculty Room","Humanities faculty room"
"HMTS Department","HMTS Department","Humanities department","hmts dept","hmts classes"
"Mechanical Workshop","Mechanical Workshop","Workshop"
"Mechanical HOD","Mechanical HOD","Mechanical Engineering Head Of Department","Head Of Department, Mechanical Engineering","Mechanical Engineering HOD"
"Mechanical Faculty Room","Mechanical Faculty Room","Mechanial Engineering Faculty Room","Mechanical Engineering Staff Room","ME Faculty Room","ME Staff Room"
"Mechanical Department","Mechanical Department","Mechanical Engineering department","chemical engineering dept"
"Civil HOD","Civil HOD","Civil Engineering Head Of Department","Head Of Department, Civil Engineering","Civil Engineering HOD"
"Civil Faculty Room","Civil Engineering Faculty Room","Civil Engineering Staff Room","Civil Faculty Room","Civil Staff Room"
"Civil Department","Civil Department","Civil Engineering department","civil engineering dept"
"Electrical HOD","Electrical HOD","Electrical Engineering Head Of Department","Head Of Department, Electrical Engineering","Electrical Engineering HOD","EEE HOD"
"Electrical Faculty Room","Electrical Faculty Room","Electrical Engineering Faculty Room","Electrical Engineering Staff Room","Electrical Faculty Room","Electrical Staff Room"."EEE fasculty room"
"Electrical Department","Electrical Department","Electrical Engineering department","Electrical engineering dept"."EEE department"
"AEIE HOD","AEIE HOD","Applied Electronics and Instrumentation Engineering Head Of Department","Head Of Department","Applied Electronics and Instrumentation Engineering","Applied Electronics and Instrumentation Engineering HOD"
"AEIE Faculty Room","AEIE Faculty Room","Applied Electronics and Instrumentation Engineering Faculty Room","Applied Electronics and Instrumentation Engineering Staff Room","AEIE Faculty Room","AEIE Staff Room"
"AEIE Department","AEIE Department","Applied Electronics and Instrumentation Engineering department","Applied Electronics & Instrumentation engineering dept"
